{
  "nome": "Ecommerce - Lista Prodotti 'scelti per te' ",
  "duplicabile": true,
  "backEnd": {
    "class": "Webtek\\EcommerceBundle\\DataFormatter\\ProductFormatter",
    "method": "getCorrelati"
  },
  "config": [
    {
      "var": "limit",
      "label": "Limite",
      "type": "simpleText",
      "default": "4",
      "multilang": false,
      "mandatory": true
    }
  ],
  "author": "gabricom"
}