{
  "codice": "TSLWI.1.0.0",
  "release": "1.0",
  "releaseDate": "2017-03-28",
  "duplicabile": true,
  "descrizione": "Titolo,sottotitolo e lista con immagini laterali ( Gema System )",
  "assets": {
    "css": [
      "/node_modules/aos/dist/aos.css"
    ],
    "js": [
      "/node_modules/aos/dist/aos.js"
    ]
}
}