{
  "nome": "Modulo slider con testo e icona (cantina menegola)",
  "duplicabile": true,
  "backEnd": {
    "class": "AppBundle\\DataFormatter\\VetrinaFormatter",
    "method": "getData"
  },
  "config": [
    {
      "var": "id_sezione",
      "label": "Id Sezione",
      "type": "simpleText",
      "multilang": false,
      "mandatory": true
    },
    {
      "var": "category",
      "label": "Nome Categoria",
      "type": "simpleText",
      "default": "Default",
      "multilang": false,
      "mandatory": true
    }
  ]
}
