{
  "nome": "Ecommerce - TreeMenu Sinistra Prodotto",
  "duplicabile": false,
  "backEnd": {
    "class": "Webtek\\EcommerceBundle\\DataFormatter\\ProductFormatter",
    "method": "getMenu"
  },
  "config": [],
  "author": "gabricom"
}