<?xml version="1.0" encoding="UTF-8" standalone="no"?>
<svg
   xmlns:dc="http://purl.org/dc/elements/1.1/"
   xmlns:cc="http://creativecommons.org/ns#"
   xmlns:rdf="http://www.w3.org/1999/02/22-rdf-syntax-ns#"
   xmlns:svg="http://www.w3.org/2000/svg"
   xmlns="http://www.w3.org/2000/svg"
   xmlns:sodipodi="http://sodipodi.sourceforge.net/DTD/sodipodi-0.dtd"
   xmlns:inkscape="http://www.inkscape.org/namespaces/inkscape"
   enable-background="new 0 0 50 50"
   height="150"
   id="Layer_1"
   version="1.1"
   viewBox="0 0 150 150"
   width="150"
   xml:space="preserve"
   inkscape:version="0.91 r13725"
   sodipodi:docname="folder-up.svg"><metadata
     id="metadata13"><rdf:RDF><cc:Work
         rdf:about=""><dc:format>image/svg+xml</dc:format><dc:type
           rdf:resource="http://purl.org/dc/dcmitype/StillImage" /><dc:title></dc:title></cc:Work></rdf:RDF></metadata><defs
     id="defs11" /><sodipodi:namedview
     pagecolor="#ffffff"
     bordercolor="#666666"
     borderopacity="1"
     objecttolerance="10"
     gridtolerance="10"
     guidetolerance="10"
     inkscape:pageopacity="0"
     inkscape:pageshadow="2"
     inkscape:window-width="1855"
     inkscape:window-height="1026"
     id="namedview9"
     showgrid="false"
     inkscape:zoom="1.668772"
     inkscape:cx="-94.80628"
     inkscape:cy="-78.441712"
     inkscape:window-x="65"
     inkscape:window-y="24"
     inkscape:window-maximized="1"
     inkscape:current-layer="Layer_1" /><g
     id="g3341"
     transform="matrix(2.9997898,0,0,3,0.00783299,-300)"><rect
       style="fill:none"
       y="100"
       x="0"
       id="rect3"
       width="50"
       height="50" /><path
       style="fill:none;stroke:#000000;stroke-width:2;stroke-linecap:round;stroke-miterlimit:10"
       inkscape:connector-curvature="0"
       id="path5"
       stroke-miterlimit="10"
       d="m 46,115 0,-4 c 0,-1.104 -0.896,-2 -2,-2 0,0 -24.648,0 -26,0 -1.469,0 -2.484,-4 -4,-4 l -11,0 c -1.104,0 -2,0.896 -2,2 l 0,4 0,29 0,4 c 0,1.104 0.896,2 2,2 l 39,0 c 1.104,0 2,-0.896 2,-2" /><path
       style="fill:none;stroke:#000000;stroke-width:2;stroke-linecap:round;stroke-miterlimit:10"
       inkscape:connector-curvature="0"
       id="path7"
       stroke-miterlimit="10"
       d="m 1,144 5,-27 c 0,-1.104 0.896,-2 2,-2 l 39,0 c 1.104,0 2,0.896 2,2 l -5,27" /></g><path
     inkscape:connector-curvature="0"
     d="M 59.323468,78.806198 72.222255,66.484786 c 0.712507,-0.737073 1.682985,-1.10561 2.751743,-1.10561 1.068758,0 2.026954,0.368537 2.751743,1.10561 l 12.947921,12.321412 c 1.53557,1.461862 1.53557,3.845066 0,5.306929 -1.535571,1.461862 -4.017049,1.461862 -5.55262,0 l -6.191417,-5.908872 0,26.657485 c 0,2.07609 -1.756689,3.75908 -3.931057,3.75908 -2.174368,0 -3.931063,-1.68299 -3.931063,-3.75908 l 0,-26.657485 -6.191417,5.921157 c -1.535565,1.461862 -4.017049,1.461862 -5.55262,0 -1.53557,-1.474148 -1.53557,-3.845067 0,-5.319214 z"
     id="path3" /></svg>