{
  "nome": "Slider composto a partire da una serie di diapositive inserite nel backoffice tramite la gestione vetrina (Cantina Menegola)",
  "duplicabile": true,
  "backEnd": {
    "class": "AppBundle\\DataFormatter\\VetrinaFormatter",
    "method": "getData"
  },
  "config": [
    {
      "var": "id_sezione",
      "label": "Id Sezione",
      "type": "simpleText",
      "multilang": false,
      "mandatory": true
    },
    {
      "var": "sfondo",
      "label": "Immagine sfondo",
      "type": "backgroundImage",
      "dimensioni": "1x1080",
      "multilang": false,
      "mandatory": false,
      "types": [
        "jpg",
        "jpeg",
        "png",
        "gif"
      ]
    },
    {
      "var": "category",
      "label": "Nome Categoria",
      "type": "simpleText",
      "default": "Default",
      "multilang": false,
      "mandatory": true
    }
  ]
}
