{
  "codice": "ECOMMREG.1.0.0",
  "release": "1.0",
  "releaseDate": "2017-07-24",
  "descrizione": "Modulo per la visualizzazione del processo di registrazione, Versione Ghebagas",
  "author": "gabricom",
  "assets": {
    "js": [
      "/node_modules/jquery-form/dist/jquery.form.min.js"
    ]
  }
}