{
  "codice": "BDL.1.0.0",
  "release": "1.0",
  "releaseDate": "2017-02-14",
  "nome": "Box Doppio con Logo",
  "duplicabile": true,
  "descrizione": "Box con un immagine di sfondo su un lato, dall'altro un logo e un bottone con link ",
  "author": "Matteo",
  "backEnd": {
    "class": "",
    "method": ""
  },
  "assets": {
    "css": [
      "/node_modules/aos/dist/aos.css"
    ],
    "js": [
      "/public/lib/modernizr-custom.js",
      "/public/lib/objectfit-correction.js",
      "/node_modules/aos/dist/aos.js"
    ]
  },
  "config": [
    {
      "var": "immagine",
      "label": "Immagine di Sfondo",
      "type": "image",
      "types": [
        "jpg",
        "png",
        "gif",
        "jpeg"
      ],
      "dimensioni": "1200x1000",
      "mandatory": true,
      "multilang": false
    },
    {
      "var": "link",
      "label": "Link Logo",
      "type": "link",
      "default": "",
      "multilang": true,
      "mandatory": true
    },
    {
      "var": "logo",
      "label": "Logo",
      "type": "image",
      "types": [
        "jpg",
        "png",
        "gif",
        "jpeg"
      ],
      "dimensioni": "250x250",
      "mandatory": true,
      "multilang": false
    }
  ]
}
