{
  "author": "Gabriele 'gabricom' Colombera",
  "nome": "Titolo , testo , 6 blocchi quadrati con effetto hover, immagine e titolo",
  "duplicabile": true,
  "config": [
    {
      "var": "titolo",
      "label": "Titolo",
      "type": "simpleText",
      "multilang": true,
      "mandatory": false
    },
    {
      "var": "testo",
      "label": "Testo",
      "type": "mediumText",
      "multilang": true,
      "mandatory": false
    },
    {

      "var": "img_icon",
      "label": "Icona",
      "type": "backgroundImage",
      "dimensioni": "33x47",
      "types": [
        "png",
        "jpg",
        "gif",
        "jpeg"
      ],
      "multilang": false,
      "mandatory": true
    },
    {

      "var": "img1",
      "label": "Immagine 1",
      "type": "image",
      "dimensioni": "33x47",
      "types": [
        "png",
        "jpg",
        "gif",
        "jpeg"
      ],
      "multilang": false,
      "mandatory": true
    },
    {
      "var": "titoletto1",
      "label": "Titoletto 1",
      "type": "link",
      "multilang": true,
      "mandatory": true
    },
    {

      "var": "img2",
      "label": "Immagine 2",
      "type": "image",
      "dimensioni": "33x47",
      "types": [
        "png",
        "jpg",
        "gif",
        "jpeg"
      ],
      "multilang": false,
      "mandatory": true
    },
    {
      "var": "titoletto2",
      "label": "Titoletto 2",
      "type": "link",
      "multilang": true,
      "mandatory": true
    },
    {

      "var": "img3",
      "label": "Immagine 3",
      "type": "image",
      "dimensioni": "33x47",
      "types": [
        "png",
        "jpg",
        "gif",
        "jpeg"
      ],
      "multilang": false,
      "mandatory": true
    },
    {
      "var": "titoletto3",
      "label": "Titoletto 3",
      "type": "link",
      "multilang": true,
      "mandatory": true
    },
    {

      "var": "img4",
      "label": "Immagine 4",
      "type": "image",
      "dimensioni": "33x47",
      "types": [
        "png",
        "jpg",
        "gif",
        "jpeg"
      ],
      "multilang": false,
      "mandatory": true
    },
    {
      "var": "titoletto4",
      "label": "Titoletto 4",
      "type": "link",
      "multilang": true,
      "mandatory": true
    },
    {

      "var": "img5",
      "label": "Immagine 5",
      "type": "image",
      "dimensioni": "33x47",
      "types": [
        "png",
        "jpg",
        "gif",
        "jpeg"
      ],
      "multilang": false,
      "mandatory": true
    },
    {
      "var": "titoletto5",
      "label": "Titoletto 5",
      "type": "link",
      "multilang": true,
      "mandatory": true
    },
    {

      "var": "img6",
      "label": "Immagine 6",
      "type": "image",
      "dimensioni": "33x47",
      "types": [
        "png",
        "jpg",
        "gif",
        "jpeg"
      ],
      "multilang": false,
      "mandatory": true
    },
    {
      "var": "titoletto6",
      "label": "Titoletto 6",
      "type": "link",
      "multilang": true,
      "mandatory": true
    }
  ]
}