{
  "codice": "BDSVG.1.0.0",
  "release": "1.0",
  "releaseDate": "2017-02-15",
  "nome": "Box Doppio con Icone",
  "duplicabile": true,
  "descrizione": "Box Doppio con immagine da un lato, dall'altro titolo, testo e spazio per icone",
  "author": "Matteo",
  "backEnd": {
    "class": "",
    "method": ""
  },
  "assets": {
    "css": [
      "/node_modules/aos/dist/aos.css"
    ],
    "js": [
      "/public/lib/modernizr-custom.js",
      "/public/lib/objectfit-correction.js",
      "/node_modules/aos/dist/aos.js"
    ]
  },
  "config": [
    {
      "var": "immagine",
      "label": "Immagine di Sfondo",
      "type": "image",
      "types": [
        "jpg",
        "png",
        "gif",
        "jpeg"
      ],
      "dimensioni": "1200x1000",
      "mandatory": true,
      "multilang": false
    },
    {
      "var": "testo",
      "label": "Testo",
      "type": "mediumText",
      "default": "",
      "multilang": true,
      "mandatory": true
    },
    {
      "var": "titolo",
      "label": "Titolo",
      "type": "mediumText",
      "default": "",
      "multilang": true,
      "mandatory": true
    },
    {
      "var": "testo_icone",
      "label": "Testo Icone",
      "type": "simpleText",
      "default": "",
      "multilang": true,
      "mandatory": true
    }
  ]
}
