{
  "codice": "BP.1.0.0",
  "release": "1.0",
  "releaseDate": "2017-03-23",
  "author": "Nicola Saccucci",
  "descrizione": "Testo con background parallax (Cantina Menegola)",
  "assets": {
    "css": [

    ],
    "js": [

    ]
  }
}
