{
  "codice": "TITTTI.1.0.0",
  "release": "1.0",
  "releaseDate": "2017-03-02",
  "descrizione": "Tre blocchi testuali con titolo icona e testo alternati da 3 immagini",
  "author": "Giovanni Lenoci"
}