{
  "codice": "TM.1.0.0",
  "release": "1.0",
  "releaseDate": "2017-03-23",
  "descrizione": "Estrazione di un menu drop down a partire da un livello di estrazione",
  "author": "Giovanni Lenoci",
  "assets": {
    "js": [
      "/node_modules/bootstrap-hover-dropdown/bootstrap-hover-dropdown.min.js"
    ]
  }
}