{
  "nome": "Vetrina Box Quadruplo",
  "duplicabile": true,
  "backEnd": {
    "class": "AppBundle\\DataFormatter\\VetrinaFormatter",
    "method": "getData"
  },
  "config": [
    {
      "type": "simpleText",
      "multilang": false,
      "var": "category",
      "label": "Categoria Vetrina",
      "mandatory": true,
      "help": "default",
      "default": "default"
    },
    {
      "type": "mediumText",
      "multilang": true,
      "var": "titolo",
      "label": "Titolo",
      "mandatory": false,
      "help": "",
      "default": ""
    },
    {
      "type": "mediumText",
      "multilang": true,
      "var": "testo",
      "label": "Testo",
      "mandatory": false,
      "help": "",
      "default": ""
    },
    {
      "type": "mediumText",
      "multilang": true,
      "var": "slogan",
      "label": "Slogan Centrale",
      "mandatory": false,
      "help": "",
      "default": ""
    },
    {
      "type": "image",
      "multilang": false,
      "var": "img1",
      "label": "Immagine 1",
      "mandatory": false,
      "help": "",
      "default": "",
      "types": [
        "jpg",
        "png",
        "gif",
        "jpeg"
      ],
      "dimensioni": "300x200"
    },
    {
      "type": "image",
      "multilang": false,
      "var": "img2",
      "label": "Immagine 2",
      "mandatory": false,
      "help": "",
      "default": "",
      "types": [
        "jpg",
        "png",
        "gif",
        "jpeg"
      ],
      "dimensioni": "300x200"
    }
  ]
}