{
  "codice": "BN.1.0.0",
  "release": "1.0",
  "releaseDate": "2017-03-28",
  "descrizione": "Mostra 4 icone con etichette e valore ed eventualmente un'immagine di sfondo",
  "author": "Giovanni Lenoci",
  "assets": {
    "css": [
      "\/public\/lib\/odometer\/themes\/odometer-theme-minimal.css"
    ],
    "js": [
      "\/public\/lib\/odometer\/odometer.min.js"
    ]
  }
}