{
  "codice": "BIH.1.0.0",
  "release": "1.0",
  "releaseDate": "2017 -02 -28",
  "descrizione": "Immagine di header di una news nel blog con link alla categoria e data di pubblicazione della news",
  "author": "Giovanni Lenoci"
}