{
  "codice": "BCom.2.0.0",
  "release": "1.0",
  "releaseDate": "2017-04-03",
  "descrizione": "Modulo per l'estrazione e creazione di commenti, Gema",
  "author": "Gabriele Colombera",
  "assets": {
    "js": [
      "/node_modules/jquery-form/dist/jquery.form.min.js"
    ]
  }
}