{
  "nome": "Ecommerce - Ghebagas - Slider Homepage",
  "duplicabile": true,
  "backEnd": {
    "class": "AppBundle\\DataFormatter\\VetrinaFormatter",
    "method": "getData"
  },
  "config": [
    {
      "var": "category",
      "label": "Categoria",
      "type": "simpleText",
      "default": "slider_homepage",
      "multilang": false,
      "mandatory": true
    }
  ],
  "author": "gabricom"
}