{
  "codice": "HTC.1.0.0",
  "release": "1.0",
  "releaseDate": "2017-03-23",
  "nome": "Header con testo al centro e doppio sfondo (Colorato e grigio) (homepage Cantina Menegola)",
  "descrizione": "Header con testo",
  "author": "Nicola Saccucci",
  "assets":{
    "css": [
      "/node_modules/aos/dist/aos.css"
    ],
    "js": [
      "/node_modules/aos/dist/aos.js"
    ]
  }
}
