{
  "codice": "4BLIST.1.0.0",
  "release": "1.0",
  "releaseDate": "2017-02-12",
  "nome": "Testo, quattro blocchi con liste ",
  "duplicabile": true,
  "descrizione": "Testo, quattro blocchi con liste",
  "backEnd": {
    "class": "",
    "method": ""
  },
  "assets": {
    "css": [
      "/node_modules/aos/dist/aos.css"
    ],
    "js": [
      "/node_modules/aos/dist/aos.js",
      "/node_modules/jquery-match-height/dist/jquery.matchHeight-min.js"
    ]
  },
  "config": [
    {
      "var": "titolo1",
      "label": "Titolo 1",
      "type": "simpleText",
      "default": "",
      "multilang": true,
      "mandatory": true
    },
    {
      "var": "sottotitolo1",
      "label": "Sottotitolo 1",
      "type": "mediumText",
      "default": "",
      "multilang": true,
      "mandatory": true
    },
    {
      "var": "testo1",
      "label": "Testo 1",
      "type": "mediumText",
      "default": "",
      "multilang": true,
      "mandatory": true
    },
    {
      "var": "list1_icon1",
      "label": "Lista 1 , Icona 1",
      "type": "image",
      "types": [
        "jpg",
        "png",
        "gif",
        "jpeg"
      ],
      "dimensioni": "40x37",
      "mandatory": true,
      "multilang": false
    },
    {
      "var": "list1_title1",
      "label": "Lista 1 , Titolo 1",
      "type": "simpleText",
      "default": "",
      "multilang": true,
      "mandatory": true
    },
    {
      "var": "list1_text1",
      "label": "Lista 1, Testo 1",
      "type": "mediumText",
      "default": "",
      "multilang": true,
      "mandatory": true
    },
    {
      "var": "list1_icon2",
      "label": "Lista 1 , Icona 2 ",
      "type": "image",
      "types": [
        "jpg",
        "png",
        "gif",
        "jpeg"
      ],
      "dimensioni": "40x37",
      "mandatory": true,
      "multilang": false
    },
    {
      "var": "list1_title2",
      "label": "Lista 1 , Titolo 2",
      "type": "simpleText",
      "default": "",
      "multilang": true,
      "mandatory": true
    },
    {
      "var": "list1_text2",
      "label": "Lista 1, Testo 2",
      "type": "mediumText",
      "default": "",
      "multilang": true,
      "mandatory": true
    },
    {
      "var": "list1_icon3",
      "label": "Lista 1 , Icona 3",
      "type": "image",
      "types": [
        "jpg",
        "png",
        "gif",
        "jpeg"
      ],
      "dimensioni": "40x37",
      "mandatory": true,
      "multilang": false
    },
    {
      "var": "list1_title3",
      "label": "Lista 1 , Titolo 3",
      "type": "simpleText",
      "default": "",
      "multilang": true,
      "mandatory": true
    },
    {
      "var": "list1_text3",
      "label": "Lista 1, Testo 3",
      "type": "mediumText",
      "default": "",
      "multilang": true,
      "mandatory": true
    },
    {
      "var": "list1_icon4",
      "label": "Lista 1 , Icona 4",
      "type": "image",
      "types": [
        "jpg",
        "png",
        "gif",
        "jpeg"
      ],
      "dimensioni": "40x37",
      "mandatory": true,
      "multilang": false
    },
    {
      "var": "list1_title4",
      "label": "Lista 1 , Titolo 4",
      "type": "simpleText",
      "default": "",
      "multilang": true,
      "mandatory": true
    },
    {
      "var": "list1_text4",
      "label": "Lista 1, Testo 4",
      "type": "mediumText",
      "default": "",
      "multilang": true,
      "mandatory": true
    },
    {
      "var": "list2_icon1",
      "label": "Lista 2 , Icona 1",
      "type": "image",
      "types": [
        "jpg",
        "png",
        "gif",
        "jpeg"
      ],
      "dimensioni": "40x37",
      "mandatory": true,
      "multilang": false
    },
    {
      "var": "list2_title1",
      "label": "Lista 2 , Titolo 1",
      "type": "simpleText",
      "default": "",
      "multilang": true,
      "mandatory": true
    },
    {
      "var": "list2_text1",
      "label": "Lista 2, Testo 1",
      "type": "mediumText",
      "default": "",
      "multilang": true,
      "mandatory": true
    },
    {
      "var": "list2_icon2",
      "label": "Lista 2 , Icona 2 ",
      "type": "image",
      "types": [
        "jpg",
        "png",
        "gif",
        "jpeg"
      ],
      "dimensioni": "40x37",
      "mandatory": true,
      "multilang": false
    },
    {
      "var": "list2_title2",
      "label": "Lista 2 , Titolo 2",
      "type": "simpleText",
      "default": "",
      "multilang": true,
      "mandatory": true
    },
    {
      "var": "list2_text2",
      "label": "Lista 2, Testo 2",
      "type": "mediumText",
      "default": "",
      "multilang": true,
      "mandatory": true
    },
    {
      "var": "list2_icon3",
      "label": "Lista 2 , Icona 3",
      "type": "image",
      "types": [
        "jpg",
        "png",
        "gif",
        "jpeg"
      ],
      "dimensioni": "40x37",
      "mandatory": true,
      "multilang": false
    },
    {
      "var": "list2_title3",
      "label": "Lista 2 , Titolo 3",
      "type": "simpleText",
      "default": "",
      "multilang": true,
      "mandatory": true
    },
    {
      "var": "list2_text3",
      "label": "Lista 2, Testo 3",
      "type": "mediumText",
      "default": "",
      "multilang": true,
      "mandatory": true
    },
    {
      "var": "list2_icon4",
      "label": "Lista 2 , Icona 4",
      "type": "image",
      "types": [
        "jpg",
        "png",
        "gif",
        "jpeg"
      ],
      "dimensioni": "40x37",
      "mandatory": true,
      "multilang": false
    },
    {
      "var": "list2_title4",
      "label": "Lista 2 , Titolo 4",
      "type": "simpleText",
      "default": "",
      "multilang": true,
      "mandatory": true
    },
    {
      "var": "list2_text4",
      "label": "Lista 2, Testo 4",
      "type": "mediumText",
      "default": "",
      "multilang": true,
      "mandatory": true
    },
    {
      "var": "titolo2",
      "label": "Titolo 2 , box 4",
      "type": "simpleText",
      "default": "",
      "multilang": true,
      "mandatory": true
    },
    {
      "var": "sottotitolo2",
      "label": "Sottotitolo 2 , box 4",
      "type": "mediumText",
      "default": "",
      "multilang": true,
      "mandatory": true
    },
    {
      "var": "testo2",
      "label": "Testo 2, box 4",
      "type": "mediumText",
      "default": "",
      "multilang": true,
      "mandatory": true
    }
  ]
}
