{
  "author": "Gabriele 'gabricom' Colombera",
  "nome": "Slider Presentazione con scritta e logo",
  "duplicabile": true,
  "backEnd": {
    "class": "AppBundle\\DataFormatter\\VetrinaFormatter",
    "method": "getData"
  },
  "config": [
    {
      "var": "category",
      "label": "Nome Categoria",
      "type": "simpleText",
      "multilang": false,
      "mandatory": true,
      "default":"default"
    },
    {
      "var": "titolo",
      "label": "Titolo",
      "type": "simpleText",
      "multilang": true,
      "mandatory": true
    },
    {
      "var": "sottotitolo",
      "label": "Sottotitolo",
      "type": "simpleText",
      "multilang": true,
      "mandatory": true
    },
    {
      "var": "testo",
      "label": "Testo",
      "type": "mediumText",
      "multilang": true,
      "mandatory": true
    },
    {
      "var": "titoletto",
      "label": "Titoletto",
      "type": "simpleText",
      "default":"",
      "multilang": true,
      "mandatory": false
    },
    {
      "var": "link",
      "label": "Freccetta",
      "type": "link",
      "mandatory": true,
      "multilang": false
    },
    {
      "var": "img_slider",
      "label": "Immaginetta Slider",
      "type": "image",
      "dimensioni": "33x47",
      "types": [
        "png",
        "jpg",
        "gif",
        "jpeg"
      ],
      "multilang": false,
      "mandatory": true
    },
    {
      "var": "logo",
      "label": "Logo",
      "type": "image",
      "dimensioni": "235x142",
      "types": [
        "png",
        "jpg",
        "gif",
        "jpeg"
      ],
      "multilang": false,
      "mandatory": true
    }
  ]
}