{
  "codice": "ECOMMACCED.1.0.0",
  "release": "1.0",
  "releaseDate": "2017-07-27",
  "descrizione": "Modulo per la modifica dei dati Anagrafici - Ghebagas",
  "author": "gabricom",
  "assets": {
    "js": [
      "/node_modules/jquery-form/dist/jquery.form.min.js"
    ]
  }
}