{
  "codice": "MR.1.0.0",
  "release": "1.0",
  "releaseDate": "2017-01-25",
  "nome": "Menu responsive",
  "duplicabile": true,
  "descrizione": "Modulo per l'estrazione del menu responsive a partire da un livello di appartenenza",
  "backEnd": {
    "class": "AppBundle\\DataFormatter\\MenuFormatter",
    "method": "getData"
  },
  "config": [
    {
      "var": "level",
      "label": "Livello",
      "type": "simpleText",
      "multilang": false,
      "mandatory": true
    },
    {
      "var": "immagineMenu",
      "label": "Immagine Menu",
      "type": "image",
      "dimensioni": "250*200",
      "types": [
        "png",
        "jpg",
        "gif",
        "jpeg"
      ],
      "multilang": false,
      "mandatory": false
    },
    {
      "var": "sfondoMenuPc",
      "label": "Sfondo Menu Pc",
      "type": "image",
      "dimensioni": "1920*1080",
      "types": [
        "png",
        "jpg",
        "gif",
        "jpeg"
      ],
      "multilang": false,
      "mandatory": false
    },
    {
      "var": "sfondoMenuCell",
      "label": "Sfondo Menu Cellulare",
      "type": "image",
      "dimensioni": "640x640",
      "types": [
        "png",
        "jpg",
        "gif",
        "jpeg"
      ],
      "multilang": false,
      "mandatory": false
    },
    {
      "var": "urlSocial1",
      "label": "URL Social1",
      "type": "simpleText",
      "multilang": false,
      "mandatory": false,
      "group": "socialUrls"
    },
    {
      "var": "iconaSocial1",
      "label": "Icona social 1",
      "type": "image",
      "dimensioni": "26x28",
      "types": [
        "png",
        "jpg",
        "gif",
        "jpeg"
      ],
      "multilang": false,
      "mandatory": false,
      "group": "socialImages"
    },
    {
      "var": "urlSocial2",
      "label": "URL Social2",
      "type": "simpleText",
      "multilang": false,
      "mandatory": false,
      "group": "socialUrls"
    },
    {
      "var": "iconaSocial2",
      "label": "Icona social 2",
      "type": "image",
      "dimensioni": "26x28",
      "types": [
        "png",
        "jpg",
        "gif",
        "jpeg"
      ],
      "multilang": false,
      "mandatory": false,
      "group": "socialImages"
    },
    {
      "var": "urlSocial3",
      "label": "URL Social3",
      "type": "simpleText",
      "multilang": false,
      "mandatory": false,
      "group": "socialUrls"
    },
    {
      "var": "iconaSocial3",
      "label": "Icona social 3",
      "type": "image",
      "dimensioni": "26x28",
      "types": [
        "png",
        "jpg",
        "gif",
        "jpeg"
      ],
      "multilang": false,
      "mandatory": false,
      "group": "socialImages"
    },
    {
      "var": "urlSocial4",
      "label": "URL Social4",
      "type": "simpleText",
      "multilang": false,
      "mandatory": false,
      "group": "socialUrls"
    },
    {
      "var": "iconaSocial4",
      "label": "Icona social 4",
      "type": "image",
      "dimensioni": "26x28",
      "types": [
        "png",
        "jpg",
        "gif",
        "jpeg"
      ],
      "multilang": false,
      "mandatory": false,
      "group": "socialImages"
    },
    {
      "var": "urlSocial5",
      "label": "URL Social5",
      "type": "simpleText",
      "multilang": false,
      "mandatory": false,
      "group": "socialUrls"
    },
    {
      "var": "iconaSocial5",
      "label": "Icona social 5",
      "type": "image",
      "dimensioni": "26x28",
      "types": [
        "png",
        "jpg",
        "gif",
        "jpeg"
      ],
      "multilang": false,
      "mandatory": false,
      "group": "socialImages"
    },
    {
      "var": "urlSocial6",
      "label": "URL Social6",
      "type": "simpleText",
      "multilang": false,
      "mandatory": false,
      "group": "socialUrls"
    },
    {
      "var": "iconaSocial6",
      "label": "Icona social 6",
      "type": "image",
      "dimensioni": "26x28",
      "types": [
        "png",
        "jpg",
        "gif",
        "jpeg"
      ],
      "multilang": false,
      "mandatory": false,
      "group": "socialImages"
    },
    {
      "var": "urlSocial7",
      "label": "URL Social7",
      "type": "simpleText",
      "multilang": false,
      "mandatory": false,
      "group": "socialUrls"
    },
    {
      "var": "iconaSocial7",
      "label": "Icona social 7",
      "type": "image",
      "dimensioni": "26x28",
      "types": [
        "png",
        "jpg",
        "gif",
        "jpeg"
      ],
      "multilang": false,
      "mandatory": false,
      "group": "socialImages"
    },
    {
      "var": "urlSocial8",
      "label": "URL Social8",
      "type": "simpleText",
      "multilang": false,
      "mandatory": false,
      "group": "socialUrls"
    },
    {
      "var": "iconaSocial8",
      "label": "Icona social 8",
      "type": "image",
      "dimensioni": "26x28",
      "types": [
        "png",
        "jpg",
        "gif",
        "jpeg"
      ],
      "multilang": false,
      "mandatory": false,
      "group": "socialImages"
    }
  ]
}
