{
  "author": "Gabriele 'gabricom' Colombera",
  "nome": "Titolo , Sottotitolo, Lista con iconcine a sinistra",
  "duplicabile": true,
  "config": [
    {
      "var": "titolo",
      "label": "Titolo",
      "type": "simpleText",
      "multilang": true,
      "mandatory": true
    },
    {
      "var": "sottotitolo",
      "label": "Sottotitolo",
      "type": "simpleText",
      "multilang": true,
      "mandatory": true
    },
    {

      "var": "img_icon",
      "label": "Icona",
      "type": "backgroundImage",
      "dimensioni": "33x47",
      "types": [
        "png",
        "jpg",
        "gif",
        "jpeg"
      ],
      "multilang": false,
      "mandatory": true
    },
    {
      "var": "titoletto1",
      "label": "Titoletto 1",
      "type": "mediumText",
      "multilang": true,
      "mandatory": true
    },
    {
      "var": "titoletto2",
      "label": "Titoletto 2",
      "type": "mediumText",
      "multilang": true,
      "mandatory": true
    },
    {
      "var": "titoletto3",
      "label": "Titoletto 3",
      "type": "mediumText",
      "multilang": true,
      "mandatory": true
    },
    {
      "var": "titoletto4",
      "label": "Titoletto 4",
      "type": "mediumText",
      "multilang": true,
      "mandatory": true
    },
    {
      "var": "titoletto5",
      "label": "Titoletto 5",
      "type": "mediumText",
      "multilang": true,
      "mandatory": true
    },
    {
      "var": "titoletto6",
      "label": "Titoletto 6",
      "type": "mediumText",
      "multilang": true,
      "mandatory": true
    },
    {
      "var": "titoletto7",
      "label": "Titoletto 7",
      "type": "mediumText",
      "multilang": true,
      "mandatory": true
    }
  ]
}