{
  "codice": "IMGCENTER.1.0.0",
  "release": "1.0",
  "releaseDate": "2017-02-08",
  "nome": "Immagine al centro responsive",
  "descrizione": "Immagine al centro responsive",
  "duplicabile": true
}
