{
  "codice": "TWN.1.0.0",
  "release": "1.0",
  "releaseDate": "2017-05-29",
  "nome": "Modulo news con titolo (TechAuto)",
  "descrizione": "Modulo news con titolo (TechAuto)",
  "author": "Nicola Saccucci",
  "duplicabile": false,
  "assets": {
    "css":[
      "/node_modules/aos/dist/aos.css"
    ],
    "js": [
      "/public/lib/modernizr-custom.js",
      "/node_modules/jquery-match-height/dist/jquery.matchHeight-min.js",
      "/node_modules/object-fit-images/dist/ofi.min.js",
      "/node_modules/aos/dist/aos.js"
    ]
  }
}
