{
  "nome": "Categorie Blog",
  "backEnd": {
    "class": "AppBundle\\DataFormatter\\CategorieBlogFormatter",
    "method": "getData"
  },
  "config": [
    {
      "var": "titolo",
      "label": "Titolo",
      "type": "simpleText",
      "default": "Categorie",
      "multilang": true,
      "mandatory": false
    }
  ]
}