{
  "nome": "Page Rows",
  "backEnd": {
    "class": "AppBundle\\DataFormatter\\PageRowsFormatter",
    "method": "getData"
  },
  "config": [
    {
      "var": "da_riga",
      "label": "Numero di riga",
      "help": "Indica il numero della prima riga da estrarre, se indichi 0 verranno estratte tutte le righe della pagina",
      "type": "simpleText",
      "default": "0",
      "multilang": false,
      "mandatory": true
    },
    {
      "var": "a_riga",
      "label": "Numero di riga",
      "help": "Indica il numero dell'ultima riga da estrarre, se indichi 0 verranno estratte tutte le righe dopo la riga indicata precedentemente",
      "type": "simpleText",
      "default": "0",
      "multilang": false,
      "mandatory": true
    }
  ]
}