{
    "nome": "Immagine Ornamento Separatore",
    "duplicabile": true,
    "backEnd": {
        "class": null,
        "method": ""
    },
    "config": [
        {
            "type": "backgroundImage",
            "multilang": false,
            "var": "immagine",
            "label": "Immagine",
            "mandatory": true,
            "help": "",
            "default": "",
            "types": [
                "jpg",
                "png",
                "gif",
                "jpeg"
            ],
            "dimensioni": "1920x150"
        }
    ]
}