{
  "nome": "Modulo di esempio",
  "duplicabile": true,
  "backEnd": {
    "class": "",
    "method": ""
  },
  "config": [
    {
      "var": "testoSemplice",
      "label": "Testo Semplice a numero variabile",
      "type": "simpleText",
      "default": "Il mio testo",
      "allow_add": true,
      "multilang": false,
      "mandatory": true
    },
    {
      "var": "testoSempliceSingolo",
      "label": "Testo Semplice singolo",
      "type": "simpleText",
      "default": "Il mio testo",
      "allow_add": false,
      "multilang": true,
      "mandatory": true
    },
    {
      "type": "image",
      "multilang": false,
      "var": "slider",
      "label": "Immagine slider",
      "mandatory": false,
      "allow_add": true,
      "help": "",
      "default": "",
      "types": [
        "jpg",
        "png",
        "gif",
        "jpeg"
      ],
      "dimensioni": "300x200"
    },
    {
      "type": "image",
      "multilang": true,
      "var": "immaginesingola",
      "label": "Immagine singola",
      "mandatory": false,
      "allow_add": false,
      "help": "",
      "default": "",
      "types": [
        "jpg",
        "png",
        "gif",
        "jpeg"
      ],
      "dimensioni": "300x200"
    },
    {
      "type": "file",
      "multilang": false,
      "var": "allegati",
      "label": "Allegati",
      "mandatory": false,
      "allow_add": true,
      "help": "",
      "default": "",
      "types": [
        "pdf"
      ]
    },
    {
      "type": "link",
      "multilang": false,
      "var": "links",
      "label": "Link utili",
      "mandatory": false,
      "allow_add": true,
      "help": "",
      "default": ""
    },
    {
      "type": "link",
      "multilang": true,
      "var": "linksingolo",
      "label": "Link singolo",
      "mandatory": false,
      "allow_add": false,
      "help": "",
      "default": ""
    }
  ]
}