{
  "nome": "Testo Semplice",
  "duplicabile": true,
  "backEnd": {
    "class": "",
    "method": ""
  },
  "config": [
    {
      "var": "testo",
      "label": "Testo da mostrare",
      "type": "simpleText",
      "default": "",
      "multilang": true,
      "mandatory": true
    }
  ]
}