{
  "author": "Gabriele 'gabricom' Colombera",
  "nome": "Footer con logo Azienda",
  "duplicabile": true,
  "config": [
    {
      "var": "img",
      "label": "Logo",
      "type": "image",
      "multilang":false,
      "mandatory":true,
      "dimensioni": "207x110",
      "types": [
        "png",
        "jpg",
        "gif",
        "jpeg"
      ]
    },
    {
      "var": "testo_footer",
      "label": "Testo Footer",
      "type": "mediumText",
      "multilang": false,
      "mandatory": true
    }

  ]
}