{
  "nome": "Modulo header con sfondo e link in fondo per sito web Cantina Menegola",
  "duplicabile": true,
  "config": [
    {
      "var": "img",
      "label": "Immagine",
      "type": "backgroundImage",
      "dimensioni": "1920x1080",
      "types": [
        "jpg",
        "png",
        "gif",
        "jpeg"
      ],
      "multilang": false,
      "mandatory": false
    },
    {
      "var": "img_freccia",
      "label": "Immagine freccia",
      "type": "image",
      "types": [
        "jpg",
        "png",
        "gif",
        "jpeg"
      ],
      "multilang": false,
      "mandatory": false
    },
    {
      "var": "id_sezione",
      "label": "Id sezione sottostante (mettere #)",
      "type": "link",
      "default": "",
      "multilang": false,
      "mandatory": true
    }
  ]
}
