{
  "codice": "EC.1.0.0",
  "release": "1.0",
  "releaseDate": "2017-05-31",
  "descrizione": "Modulo per la visualizzazione del processo di checkout, Versione Ghebagas",
  "author": "gabricom",
  "assets": {
    "js": [
      "/node_modules/jquery-form/dist/jquery.form.min.js",
      "/node_modules/jquery-match-height/dist/jquery.matchHeight-min.js"
    ]
  }
}