{
  "codice": "SP.2.0.0",
  "release": "1.0",
  "releaseDate": "2017-03-30",
  "descrizione": "Modulo per mostrare titolo, sottotitolo, e testo in modo semplice di una pagina in visualizzazione",
  "author": "Giovanni Lenoci"
}