{
  "codice": "SIXSQUARESROW.1.0.0",
  "release": "1.0",
  "releaseDate": "2017-06-18",
  "descrizione": "Modulo Elenco Marche , versione limitata che rimanda alla pagina con tutti i marchi ",
  "author": "gabricom",
  "assets": {
  }
}