{
  "codice": "ESP.2.0.0",
  "release": "1.0",
  "releaseDate": "2017-05-25",
  "descrizione": "Modulo per la generazione della scheda prodotto -versione sexy desdy",
  "author": "Giovanni",
  "assets": {
    "css": [
      "/node_modules/slick-carousel/slick/slick.css",
      "/node_modules/slick-carousel/slick/slick-theme.css",
      "/node_modules/lightbox2/dist/css/lightbox.min.css",
      "/public/ecommerce/font-wishlist/style.css"
    ],
    "js": [
      "/node_modules/slick-carousel/slick/slick.min.js",
      "/node_modules/lightbox2/dist/js/lightbox.min.js"
    ]
  }
}