{
  "nome": "Ecommerce - Ghebagas - Lista Prodotti risultati ricerca",
  "duplicabile": true,
  "config": [],
  "author": "gabricom",
  "backEnd": {
    "class": "Webtek\\EcommerceBundle\\DataFormatter\\SearchFormatter",
    "method": "getResults"
  }
}